…
----

Inner Join
==========

Only data from both tables for which there is a match will appear in
the result::

  powers <- td %>% filter(has==TRUE);
  small_gender_info <- head(gender_info, 5);
  small_gender_info %>% inner_join(powers, by="hero_names");

  # A tibble: 46 x 4
  hero_names Gender power               has  
  <chr>      <chr>  <fct>               <lgl>
  1 A-Bomb     Male   accelerated_healing TRUE 
  2 A-Bomb     Male   durability          TRUE 
  3 A-Bomb     Male   longevity           TRUE 
  4 A-Bomb     Male   super_strength      TRUE 
  5 A-Bomb     Male   stamina             TRUE 
  6 A-Bomb     Male   camouflage          TRUE 
  7 A-Bomb     Male   self-sustenance     TRUE 
  8 Abe Sapien Male   agility             TRUE 
  9 Abe Sapien Male   accelerated_healing TRUE 
  10 Abe Sapien Male   cold_resistance     TRUE 
  # … with 36 more rows
…
----

Cross Join
==========

Not really explicitly supported in R/Tidyverse.

Usually you see the addition of a dummy column::

  small_gender_info %>% mutate(dummy=1) %>% 
   inner_join(powers %>% head(10) %>% mutate(dummy=1),
              by="dummy") %>% 
   select(-dummy);
  # A tibble: 50 x 5
     hero_names.x Gender hero_names.y power               has  
     <chr>        <chr>  <chr>        <fct>               <lgl>
   1 A-Bomb       Male   3-D Man      agility             TRUE 
   2 A-Bomb       Male   3-D Man      super_strength      TRUE 
   3 A-Bomb       Male   3-D Man      stamina             TRUE 
   4 A-Bomb       Male   3-D Man      super_speed         TRUE 
   5 A-Bomb       Male   A-Bomb       accelerated_healing TRUE 
   6 A-Bomb       Male   A-Bomb       durability          TRUE 
   7 A-Bomb       Male   A-Bomb       longevity           TRUE 
   8 A-Bomb       Male   A-Bomb       super_strength      TRUE 
   9 A-Bomb       Male   A-Bomb       stamina             TRUE 
  10 A-Bomb       Male   A-Bomb       camouflage          TRUE 
  # … with 40 more rows
…
