…
A library to allow you to access SQLite databases directly from R.

We already set up our database in the notes. So


```r
library(RSQLite);
library(DBI);
library(tidyverse);
connection <- dbConnect(SQLite(),"db.lite.sql");
dbGetQuery(connection, "select * from marvel_dc_characters") %>% as_tibble();
```

```
# A tibble: 39,648 x 12
       id name  identity alignment eye_color hair_color gender status
    <int> <chr> <chr>    <chr>     <chr>     <chr>      <chr>  <chr> 
 1 100001 Clau… "Secret" "Neutral" "Hazel"   "Brown"    "Male" Living
 2 100002 Elek… "Secret" "Neutral" "Blue"    "Black"    "Fema… Living
 3 100003 Thom… "Secret" "Neutral" "Black"   ""         "Male" Living
 4 100004 Mogu… ""       ""        ""        "Bald"     ""     Living
 5 100005 Deni… "Secret" "Good"    "Brown"   "Black"    "Fema… Living
 6 100006 Aphr… "Secret" "Good"    "Blue"    "Blond"    "Fema… Living
 7 100007 Jeve… "Public" "Good"    "Brown"   "Brown"    "Male" Living
 8 100008 Fibe… "Secret" "Neutral" "Brown"   "Brown"    "Male" Living
 9 100009 Tran… ""       "Good"    ""        "No"       ""     Living
10 100010 Snag… "No Dua… "Bad"     "Yellow"  "Black"    "Fema… Living
# … with 39,638 more rows, and 4 more variables: appearances <chr>,
#   first_appearance <chr>, year <int>, universe <chr>
```
…
Filtering with WHERE
====================


```r
q("select
    name,
    cast(substr(year, 3) as integer) as short_year,
    year as year
   from marvel_dc_characters
   where year > 1940 and year < 2000");
```

```
# A tibble: 26,911 x 3
   name                                  short_year  year
   <chr>                                      <int> <int>
 1 Elektra Natchios (Earth-616)                  81  1981
 2 Mogul (Earth-616)                             70  1970
 3 Denise Havens (Earth-616)                     95  1995
 4 Aphrodite Ourania (Earth-616)                 48  1948
 5 Jeven Ognats (Post-Zero Hour)                 94  1994
 6 Tranta (Earth-616)                            91  1991
 7 Paragon (A.I.M.) (Earth-616)                  94  1994
 8 James Ilse (Earth-616)                        46  1946
 9 Hardball (Imperial Guard) (Earth-616)         92  1992
10 Michelle Carter (New Earth)                   86  1986
# … with 26,901 more rows
```
…
we use "ORDER BY" to order the results:


```r
q("select
    name,
    cast(substr(year, 3) as integer) as short_year,
    year as year
   from marvel_dc_characters
   where year > 1940 and year < 2000
   order by year asc;")
```

```
# A tibble: 26,911 x 3
   name                         short_year  year
   <chr>                             <int> <int>
 1 Pat Murphy (Earth-616)               41  1941
 2 Abraham Erskine (Earth-616)          41  1941
 3 Killer Casey (Earth-616)             41  1941
 4 Pepo Laroc (Earth-616)               41  1941
 5 Trapeze Trio (Earth-616)             41  1941
 6 Rudolf Norsen (Earth-616)            41  1941
 7 Major Croy (Earth-616)               41  1941
 8 Gos Carlton (Earth-616)              41  1941
 9 Charles McArthur (Earth-616)         41  1941
10 Doctor Howard (Earth-616)            41  1941
# … with 26,901 more rows
```
…
Eg:

```r
q("select
    year as year,
    count() as count
    from marvel_dc_characters
    group by year
    order by count desc")
```

```
# A tibble: 80 x 2
   year   count
   <chr>  <int>
 1 ""      1699
 2 "1993"  1317
 3 "1994"  1200
 4 "1992"  1088
 5 "2006"  1065
 6 "2008"   931
 7 "2010"   927
 8 "1989"   908
 9 "1988"   894
10 "1990"   889
# … with 70 more rows
```
…
```
# A tibble: 80 x 4
    year marvel_count dc_count total
   <int>        <int>    <int> <int>
 1     0          815      884  1699
 2  1993          554      763  1317
 3  1994          485      715  1200
 4  1992          455      633  1088
 5  2006          381      684  1065
 6  2008          360      571   931
 7  2010          324      603   927
 8  1989          321      587   908
 9  1988          304      590   894
10  1990          357      532   889
# … with 70 more rows
```
…
```
# A tibble: 68 x 4
    year marvel_count dc_count total
   <int>        <int>    <int> <int>
 1  1993          554      763  1317
 2  1994          485      715  1200
 3  1992          455      633  1088
 4  2006          381      684  1065
 5  2008          360      571   931
 6  2010          324      603   927
 7  1989          321      587   908
 8  1988          304      590   894
 9  1990          357      532   889
10  1991          360      505   865
# … with 58 more rows
```
…
Let's select the stats from the powers table but only for characters
which have super strength.


```r
q("select s.*, p.power as explicit_power
from character_stats s
join hero_powers p
  on p.name = s.name where p.power = 'super_strength'
 and p.has = 'TRUE'");
```

```
# A tibble: 291 x 10
   name  alignment intelligence strength speed durability power combat total
   <chr> <chr>            <int>    <int> <int>      <int> <int>  <int> <int>
 1 3-D … good                50       31    43         32    25     52   233
 2 A-Bo… good                38      100    17         80    17     64   316
 3 Abe … good                88       14    35         42    35     85   299
 4 Abom… bad                 63       80    53         90    55     95   436
 5 Abra… bad                 88      100    83         99   100     56   526
 6 Agen… good                75       28    38         80    72     95   388
 7 Air-… bad                 50       85   100         85   100     40   460
 8 Amazo bad                 75      100   100        100   100    100   575
 9 Angel good                63       13    46         64    17     42   245
10 Anni… bad                 75       80    47         56    59     64   381
# … with 281 more rows, and 1 more variable: explicit_power <chr>
```
…
```r
q("select s.*, p.power as explicit_power
from character_stats s
join hero_powers p
  on p.name = s.name where p.power = 'super_speed'
 and p.has = 'TRUE'
union select s.*, p.power as explicit_power
from character_stats s
join hero_powers p
  on p.name = s.name where p.power = 'super_speed'
 and p.has = 'TRUE'");
```

```
# A tibble: 194 x 10
   name  alignment intelligence strength speed durability power combat total
   <chr> <chr>            <int>    <int> <int>      <int> <int>  <int> <int>
 1 3-D … good                50       31    43         32    25     52   233
 2 Abom… bad                 63       80    53         90    55     95   436
 3 Abra… bad                 88      100    83         99   100     56   526
 4 Adam… good                 1        1     1          1     0      1     5
 5 Air-… bad                 50       85   100         85   100     40   460
 6 Alan… good                63       80    23         90    98     32   386
 7 Amazo bad                 75      100   100        100   100    100   575
 8 Angel good                63       13    46         64    17     42   245
 9 Anni… bad                 75       80    47         56    59     64   381
10 Apoc… bad                100      100    33        100   100     60   493
# … with 184 more rows, and 1 more variable: explicit_power <chr>
```
…
