Classification
…
Toy Data

d <- tibble(x=c(rnorm(500,-3,2),
                rnorm(500,3,2)), 
            classification=factor(c(rep("C1",500),
                                    rep("C2",500))),
            set=factor(c(rep("Train",700),
                         rep("Validate",150),
                         rep("Test",150))
                       %>%
                       sample(1000,replace=FALSE))) %>%
    mutate(id=seq(1000));
d

# A tibble: 1,000 x 4
        x classification set         id
    <dbl> <fct>          <fct>    <int>
 1 -2.31  C1             Validate     1
 2 -0.116 C1             Train        2
 3 -7.15  C1             Train        3
 4 -0.268 C1             Test         4
 5 -8.97  C1             Test         5
 6 -1.22  C1             Train        6
 7 -1.47  C1             Validate     7
 8 -4.23  C1             Train        8
 9 -3.24  C1             Train        9
10 -3.24  C1             Test        10
#  with 990 more rows
…
